Neurowissenschaft Computerlab - Plot Gallery - Mo
…
            Kognitive Psychologie, Wahrnehmung und Methodenlehre, Universität Bern

Plot
Code

# A tibble: 31,800 × 8
   id           trial word  color  congruent resp   corr    rt
   <chr>        <dbl> <chr> <chr>      <dbl> <chr> <dbl> <dbl>
 1 sub-10318869     1 blau  red            0 r         1 1.02 
 2 sub-10318869     2 blau  yellow         0 g         1 0.710
 3 sub-10318869     3 gelb  yellow         1 r         0 0.475
 4 sub-10318869     4 gelb  yellow         1 g         1 1.04 
 5 sub-10318869     5 rot   yellow         0 g         1 0.994
 6 sub-10318869     6 rot   red            1 r         1 0.707
 7 sub-10318869     7 gelb  red            0 r         1 0.847
 8 sub-10318869     8 blau  blue           1 b         1 0.618
 9 sub-10318869     9 rot   blue           0 r         0 0.900
10 sub-10318869    10 rot   red            1 r         1 0.816
# ℹ 31,790 more rows
…
