Neurowissenschaft Computerlab - Plot Gallery- Mi
…
            Kognitive Psychologie, Wahrnehmung und Methodenlehre, Universität Bern

Plot
Code

# A tibble: 120 × 2
   trial mean_rt
   <dbl>   <dbl>
 1     1   0.987
 2     2   0.846
 3     3   0.815
 4     4   0.798
 5     5   0.781
 6     6   0.791
 7     7   0.768
 8     8   0.726
 9     9   0.730
10    10   0.771
# ℹ 110 more rows
…
