Neurowissenschaft Computerlab - Modellieren 2
…
Im Experiment haben wir die Instruktion (speed, accuracy) innerhalb der Versuchspersonen manipuliert. Jede Versuchsperson wurde also beiden Bedingungen ausgesetzt. Wir erwarten nicht, dass diese Manipulation einen Einfluss auf die Sensitivität hat. Zur Kontrolle können wir diese Erwartung in den Daten Kontrollieren.

Hands-on:

Berechnen Sie nun die Sensitivität für jede Versuchsperson individuell getrennt für die beiden Bedingungn speed und accuracy.

Der resultierende Datensatz der berechneten Sensitivitäten ist im Long-Format. Überführen Sie den Datensatz in das Wide-Format, um die Daten einfacher verständlich zu machen. (vgl. Datensatz unten).

d_sens_2 = d |>
    ...
    ...
    ...

# A tibble: 271 × 3
# Groups:   id [271]
   id           accuracy speed
   <chr>           <dbl> <dbl>
 1 sub-10209782     76.7  86.7
 2 sub-10860809     81.7  50  
 3 sub-11628277     78.3  68.3
 4 sub-11764630     56.7  48.3
 5 sub-11874807     93.3  86.7
 6 sub-12063050     88.3  91.7
 7 sub-12604325     61.7  70  
 8 sub-13237045     86.7  81.7
 9 sub-13337405     56.7  53.3
10 sub-13362877     78.3  91.7
# ℹ 261 more rows
…
